<?xml version="1.0" encoding="UTF-8" standalone="no"?>
<svg
   xmlns:dc="http://purl.org/dc/elements/1.1/"
   xmlns:cc="http://creativecommons.org/ns#"
   xmlns:rdf="http://www.w3.org/1999/02/22-rdf-syntax-ns#"
   xmlns:svg="http://www.w3.org/2000/svg"
   xmlns="http://www.w3.org/2000/svg"
   xmlns:xlink="http://www.w3.org/1999/xlink"
   xmlns:sodipodi="http://sodipodi.sourceforge.net/DTD/sodipodi-0.dtd"
   xmlns:inkscape="http://www.inkscape.org/namespaces/inkscape"
   width="128"
   height="128"
   style="enable-background:new 0 0 128 128;"
   version="1.1"
   id="svg16"
   sodipodi:docname="icon_reloaded_white_hand.svg"
   inkscape:version="0.92.1 r15371">
  <metadata
     id="metadata22">
    <rdf:RDF>
      <cc:Work
         rdf:about="">
        <dc:format>image/svg+xml</dc:format>
        <dc:type
           rdf:resource="http://purl.org/dc/dcmitype/StillImage" />
      </cc:Work>
    </rdf:RDF>
  </metadata>
  <defs
     id="defs20" />
  <sodipodi:namedview
     pagecolor="#ffffff"
     bordercolor="#666666"
     borderopacity="1"
     objecttolerance="10"
     gridtolerance="10"
     guidetolerance="10"
     inkscape:pageopacity="0"
     inkscape:pageshadow="2"
     inkscape:window-width="1366"
     inkscape:window-height="719"
     id="namedview18"
     showgrid="false"
     inkscape:zoom="1.84375"
     inkscape:cx="53.353279"
     inkscape:cy="-10.131454"
     inkscape:window-x="0"
     inkscape:window-y="25"
     inkscape:window-maximized="1"
     inkscape:current-layer="layer3"
     inkscape:snap-page="true"
     inkscape:snap-global="true"
     inkscape:snap-bbox="true"
     inkscape:bbox-nodes="true" />
  <g
     id="g6" />
  <g
     inkscape:groupmode="layer"
     id="layer2"
     inkscape:label="circle"
     style="display:none">
    <circle
       style="fill:#2196f3;fill-opacity:1;stroke:none;stroke-width:0.87699997;stroke-miterlimit:4;stroke-dasharray:none;stroke-opacity:0.98500001;paint-order:normal"
       id="path4536"
       cx="64"
       cy="64"
       r="64" />
  </g>
  <g
     inkscape:groupmode="layer"
     id="layer3"
     inkscape:label="shadow">
    <path
       style="display:inline;fill:#000000;fill-opacity:0.15675677;stroke:none;stroke-width:1px;stroke-linecap:butt;stroke-linejoin:miter;stroke-opacity:1"
       d="M 19.50005,115.99156 184.6872,170.77425 236.5349,106.38552 78.976426,14.559921"
       id="path4513"
       inkscape:connector-curvature="0"
       sodipodi:nodetypes="cccc" />
  </g>
  <g
     inkscape:groupmode="layer"
     id="layer1"
     inkscape:label="phone"
     style="display:inline">
    <path
       id="path4495"
       d="m 72.508213,12.107851 -47.923467,-0.04793 c -5.271582,0 -9.584694,4.313111 -9.584694,9.584692 v 86.262257 c 0,5.27157 4.313112,9.58469 9.584694,9.58469 h 47.923467 c 5.271581,0 9.584693,-4.31312 9.584693,-9.58469 V 21.64462 c 0,-5.271581 -4.313112,-9.536769 -9.584693,-9.536769 z m 0,86.214317 H 24.584746 V 31.229314 h 47.923467 z"
       inkscape:connector-curvature="0"
       style="display:inline;fill:#000000;stroke-width:4.79234695" />
    <rect
       style="display:inline;fill:#b3e5fc;fill-opacity:1;stroke:none;stroke-width:0.87699997;stroke-miterlimit:4;stroke-dasharray:none;stroke-opacity:0.98500001;paint-order:normal"
       id="rect4529"
       width="47.92342"
       height="67.092865"
       x="24.584743"
       y="31.229313"
       ry="0" />
  </g>
  <g
     style="display:inline"
     inkscape:label="hand"
     id="g4507"
     inkscape:groupmode="layer">
    <rect
       style="fill:#b3e5fc;fill-opacity:0;stroke:none;stroke-width:3.04897332;stroke-miterlimit:4;stroke-dasharray:none;stroke-opacity:1;paint-order:normal"
       id="rect4560"
       width="47.92342"
       height="67.092857"
       x="24.584743"
       y="31.229313"
       ry="4.5541959" />
    <path
       sodipodi:type="inkscape:offset"
       inkscape:radius="1.2033832"
       inkscape:original="M 67.716797 10.552734 C 66.180613 10.756682 65.084121 11.626782 64.404297 12.289062 C 61.132367 15.464501 62.82535 18.640591 63.904297 20.123047 C 64.676226 21.175677 81.851562 37.386719 81.851562 37.386719 C 81.851563 37.386719 82.930853 38.359306 82.027344 39.324219 C 81.176467 40.236497 80.210938 39.421875 80.210938 39.421875 L 53.738281 14.376953 C 50.808457 11.394499 46.658442 11.815618 44.28125 14.412109 C 41.667216 17.262985 42.938837 20.806916 45.623047 23.447266 C 46.789713 24.596389 68.334396 45.271622 70.544922 47.341797 C 71.597554 48.324253 70.772472 49.086903 70.763672 49.095703 C 70.07069 49.850089 69.333882 49.456038 68.78125 48.947266 C 60.553182 41.333233 40.464877 22.306846 39.482422 21.412109 C 36.37716 18.605092 32.422046 18.543106 30.009766 21.113281 C 27.536083 23.744858 28.19336 28.184114 31.193359 30.947266 C 32.509149 32.166565 60.685547 59.175781 60.685547 59.175781 C 61.97502 60.570517 60.097997 62.061987 58.773438 60.798828 C 58.773438 60.798828 35.833093 39.08741 34.876953 38.341797 C 31.350637 35.596183 28.122874 36.386411 26.035156 39.228516 C 23.991297 42.009216 25.377332 45.657999 28.070312 48.552734 C 29.412417 49.99133 51.43877 71.474232 55.087891 75.28125 C 55.087891 75.28125 64.131413 83.797656 67.412109 87.824219 C 68.455968 89.10492 66.720702 91.017201 65.220703 90.324219 L 51.78125 85.421875 C 45.719848 83.509594 40.035359 85.166839 36.140625 90.587891 C 34.789747 92.465084 35.518744 95.017957 37.615234 95.710938 C 37.615234 95.710938 49.504089 100.27496 61.044922 104.52539 L 61.070312 104.53516 C 61.085986 104.54106 61.667665 104.76131 62.992188 105.24609 C 66.158854 106.40398 69.236809 107.51752 71.982422 108.48242 C 72.956106 108.82454 74.03639 109.20978 75.167969 109.61328 C 75.167969 109.61328 75.501234 109.77107 76.132812 110.06055 C 76.764391 110.35879 77.719299 110.73701 79 111.08789 C 80.280702 111.39491 81.88648 111.77156 83.763672 111.78906 C 85.640865 111.86801 87.79057 111.72752 90.0625 111.21875 C 92.343201 110.73629 94.754691 109.93919 97.158203 108.79883 C 99.561705 107.65847 101.97526 106.22719 104.30859 104.54297 C 106.63316 102.85 108.90453 100.93041 111.02734 98.798828 C 112.08875 97.737421 113.13182 96.631466 114.12305 95.447266 L 115.52734 93.746094 C 116.03611 93.158374 116.50872 92.527102 116.98242 91.904297 C 118.83329 89.369211 120.43966 86.579118 121.54492 83.587891 C 122.64141 80.596664 123.22846 77.429583 123.19336 74.376953 C 123.19336 71.324322 122.58813 68.430543 121.71094 65.869141 C 120.83374 63.298967 119.57874 61.096765 118.39453 59.140625 C 114.1226 52.079224 102.77344 40.412109 102.77344 40.412109 C 101.33484 38.938425 74.7206 13.684827 73.667969 12.816406 C 71.229373 10.812021 69.25298 10.348787 67.716797 10.552734 z "
       xlink:href="#path4497-6"
       style="display:inline;fill:#ffffff;fill-opacity:1;stroke:#000000;stroke-opacity:1"
       id="path4540"
       d="m 67.558594,9.359375 c -1.904773,0.2528828 -3.228405,1.322384 -3.994141,2.068359 -1.852523,1.799086 -2.422508,3.84273 -2.238281,5.542969 0.184301,1.700921 1.001605,3.031629 1.605469,3.861328 a 1.2035035,1.2035035 0 0 0 0.002,0.002 c 0.290194,0.39572 0.559834,0.631596 1.111328,1.183594 0.551494,0.551998 1.288565,1.27504 2.15039,2.111328 1.723651,1.672576 3.946043,3.7991 6.142579,5.892578 4.393071,4.186957 8.6875,8.240235 8.6875,8.240235 a 1.2035035,1.2035035 0 0 0 0.02148,0.01953 c 0,0 0.09155,0.107362 0.126953,0.189453 0.0354,0.08209 0.125084,-0.129451 -0.02539,0.03125 a 1.2035035,1.2035035 0 0 0 -0.002,0.002 c -0.148724,0.159457 0.0046,0.06013 -0.04687,0.04687 -0.04886,-0.01259 -0.101714,-0.04374 -0.107421,-0.04687 L 54.597656,13.533203 c -3.367622,-3.428117 -8.398653,-2.996781 -11.203125,0.06641 -1.540574,1.680157 -2.000534,3.762142 -1.607422,5.654297 0.393113,1.892156 1.525922,3.608474 2.992188,5.050782 1.204958,1.186839 18.530823,17.806971 23.078125,22.128906 C 63.661916,42.532486 57.794288,37.021445 52.240234,31.785156 46.067542,25.965623 40.904926,21.078803 40.292969,20.521484 a 1.2035035,1.2035035 0 0 0 -0.0039,-0.002 c -3.475809,-3.141975 -8.288179,-3.286267 -11.15625,-0.230469 -3.009115,3.201186 -2.161903,8.40403 1.246094,11.542969 0.552364,0.511946 8.013773,7.653498 15.220703,14.556641 7.187676,6.884699 14.172641,13.578604 14.212891,13.617187 -0.04234,0.0171 -0.0342,0.08856 -0.208984,-0.07813 a 1.2035035,1.2035035 0 0 0 -0.002,-0.002 c 0,0 -5.736163,-5.429145 -11.591796,-10.951172 -2.927817,-2.761013 -5.886795,-5.545405 -8.173828,-7.6875 -1.143517,-1.071047 -2.117708,-1.982256 -2.839844,-2.65039 -0.722137,-0.668134 -1.06281,-0.997644 -1.378906,-1.244141 -1.947749,-1.51653 -3.984672,-2.156088 -5.867188,-1.894531 -1.882061,0.261494 -3.496144,1.401562 -4.683594,3.017578 -1.247568,1.697335 -1.450169,3.753902 -0.953125,5.638672 0.497045,1.88477 1.628063,3.66215 3.076172,5.21875 0.436428,0.467805 1.998729,2.008267 4.310547,4.285156 2.311818,2.276889 5.306146,5.215595 8.371094,8.228516 6.129895,6.025841 12.577603,12.379919 14.347656,14.226562 a 1.2035035,1.2035035 0 0 0 0.04492,0.04492 c 0,0 9.093341,8.594605 12.214844,12.425781 0.06515,0.07993 0.05362,0.073 0.04687,0.132813 -0.0067,0.05981 -0.05392,0.18408 -0.154297,0.296875 -0.200762,0.22559 -0.439448,0.314398 -0.646485,0.21875 a 1.2035035,1.2035035 0 0 0 -0.0918,-0.03906 L 52.193359,84.291016 a 1.2035035,1.2035035 0 0 0 -0.05078,-0.01758 c -6.45752,-2.037251 -12.827851,-0.163999 -16.978516,5.613281 -1.771377,2.463586 -0.778928,6.023708 2.074219,6.966797 0.05494,0.02109 11.865917,4.556294 23.390625,8.800784 l 0.0098,0.004 a 1.2035035,1.2035035 0 0 0 0.0078,0.004 c -0.03865,-0.0145 0.603429,0.22871 1.931641,0.71484 3.169166,1.15881 6.252433,2.27259 9.005859,3.24024 0.9513,0.33425 2.011078,0.71231 3.119141,1.10742 0.03309,0.0156 0.327063,0.15377 0.916016,0.42383 0.699858,0.33048 1.716273,0.73077 3.0625,1.09961 a 1.2035035,1.2035035 0 0 0 0.03711,0.01 c 1.281504,0.30721 2.994074,0.71115 5.017578,0.73242 1.969412,0.0811 4.212138,-0.0665 6.585938,-0.59765 h 0.0039 c 2.371342,-0.50272 4.863263,-1.32713 7.347656,-2.50586 2.473942,-1.17378 4.949542,-2.64184 7.339842,-4.36719 a 1.2035035,1.2035035 0 0 0 0.004,-0.004 c 2.37222,-1.72767 4.69113,-3.68629 6.86133,-5.865229 l 0.002,-0.002 c 1.07757,-1.077639 2.14343,-2.210367 3.16406,-3.429688 a 1.2035035,1.2035035 0 0 0 0.006,-0.0059 l 1.38672,-1.679688 0.004,-0.0039 c 0.54498,-0.629957 1.02913,-1.27997 1.49804,-1.896485 a 1.2035035,1.2035035 0 0 0 0.0156,-0.01953 c 1.90329,-2.606889 3.56642,-5.48882 4.71875,-8.607422 a 1.2035035,1.2035035 0 0 0 0,-0.0039 c 1.14228,-3.116136 1.75857,-6.416839 1.72265,-9.630859 -7.9e-4,-3.208759 -0.63553,-6.22899 -1.54687,-8.890625 v -0.002 c -0.92262,-2.702587 -2.22968,-4.985162 -3.42578,-6.960938 -4.45666,-7.366753 -15.78711,-18.945312 -15.78711,-18.945312 a 1.2035035,1.2035035 0 0 0 -0.002,0 c -0.45516,-0.466253 -2.32205,-2.252298 -5.037114,-4.841797 -2.715061,-2.5895 -6.21022,-5.913092 -9.693359,-9.216797 -3.48314,-3.303705 -6.954016,-6.587487 -9.621094,-9.101563 C 77.949664,15.155072 76.816125,14.091278 75.982422,13.3125 75.148719,12.533722 74.70933,12.116155 74.433594,11.888672 a 1.2035035,1.2035035 0 0 0 -0.002,-0.002 C 71.816909,9.7375608 69.463924,9.1064192 67.558594,9.359375 Z"
       transform="translate(-0.09039,-0.2081)"
       inkscape:href="#path4497-6" />
  </g>
</svg>
